{
  "v": "5.6.6",
  "fr": 30,
  "ip": 0,
  "op": 120,
  "w": 1000,
  "h": 1000,
  "nm": "Logo animation",
  "ddd": 0,
  "assets": [],
  "layers": [
    {
      "ddd": 0,
      "ind": 1,
      "ty": 4,
      "nm": "Shape Layer 3",
      "sr": 1,
      "ks": {
        "o": {
          "a": 1,
          "k": [
            {
              "i": {
                "x": [
                  0.667
                ],
                "y": [
                  1
                ]
              },
              "o": {
                "x": [
                  0.333
                ],
                "y": [
                  0
                ]
              },
              "t": 99,
              "s": [
                22
              ]
            },
            {
              "t": 104,
              "s": [
                0
              ]
            }
          ],
          "ix": 11
        },
        "r": {
          "a": 0,
          "k": 0,
          "ix": 10
        },
        "p": {
          "a": 1,
          "k": [
            {
              "i": {
                "x": 0.667,
                "y": 1
              },
              "o": {
                "x": 0.333,
                "y": 0
              },
              "t": 84,
              "s": [
                271.787,
                331.421,
                0
              ],
              "to": [
                68,
                41.167,
                0
              ],
              "ti": [
                -68,
                -41.167,
                0
              ]
            },
            {
              "t": 105,
              "s": [
                679.787,
                578.421,
                0
              ]
            }
          ],
          "ix": 2
        },
        "a": {
          "a": 0,
          "k": [
            -191,
            -95.195,
            0
          ],
          "ix": 1
        },
        "s": {
          "a": 0,
          "k": [
            100,
            98.745,
            100
          ],
          "ix": 6
        }
      },
      "ao": 0,
      "shapes": [
        {
          "ty": "gr",
          "it": [
            {
              "ty": "rc",
              "d": 1,
              "s": {
                "a": 0,
                "k": [
                  35,
                  233
                ],
                "ix": 2
              },
              "p": {
                "a": 0,
                "k": [
                  0,
                  0
                ],
                "ix": 3
              },
              "r": {
                "a": 0,
                "k": 0,
                "ix": 4
              },
              "nm": "Rectangle Path 1",
              "mn": "ADBE Vector Shape - Rect",
              "hd": false
            },
            {
              "ty": "fl",
              "c": {
                "a": 0,
                "k": [
                  1,
                  1,
                  1,
                  1
                ],
                "ix": 4
              },
              "o": {
                "a": 0,
                "k": 100,
                "ix": 5
              },
              "r": 1,
              "bm": 0,
              "nm": "Fill 1",
              "mn": "ADBE Vector Graphic - Fill",
              "hd": false
            },
            {
              "ty": "tr",
              "p": {
                "a": 0,
                "k": [
                  -193.5,
                  -91.5
                ],
                "ix": 2
              },
              "a": {
                "a": 0,
                "k": [
                  0,
                  0
                ],
                "ix": 1
              },
              "s": {
                "a": 1,
                "k": [
                  {
                    "i": {
                      "x": [
                        0.667,
                        0.667
                      ],
                      "y": [
                        1,
                        1
                      ]
                    },
                    "o": {
                      "x": [
                        0.333,
                        0.333
                      ],
                      "y": [
                        0,
                        0
                      ]
                    },
                    "t": 84,
                    "s": [
                      190.232,
                      179.466
                    ]
                  },
                  {
                    "i": {
                      "x": [
                        0.667,
                        0.667
                      ],
                      "y": [
                        1,
                        1
                      ]
                    },
                    "o": {
                      "x": [
                        0.333,
                        0.333
                      ],
                      "y": [
                        0,
                        0
                      ]
                    },
                    "t": 96,
                    "s": [
                      273.436,
                      173.127
                    ]
                  },
                  {
                    "t": 105,
                    "s": [
                      309.095,
                      179.466
                    ]
                  }
                ],
                "ix": 3
              },
              "r": {
                "a": 0,
                "k": 38.995,
                "ix": 6
              },
              "o": {
                "a": 0,
                "k": 100,
                "ix": 7
              },
              "sk": {
                "a": 0,
                "k": 0,
                "ix": 4
              },
              "sa": {
                "a": 0,
                "k": 0,
                "ix": 5
              },
              "nm": "Transform"
            }
          ],
          "nm": "Rectangle 1",
          "np": 3,
          "cix": 2,
          "bm": 0,
          "ix": 1,
          "mn": "ADBE Vector Group",
          "hd": false
        }
      ],
      "ip": 0,
      "op": 150,
      "st": 0,
      "bm": 0
    },
    {
      "ddd": 0,
      "ind": 2,
      "ty": 4,
      "nm": "Mask",
      "sr": 1,
      "ks": {
        "o": {
          "a": 0,
          "k": 100,
          "ix": 11
        },
        "r": {
          "a": 0,
          "k": 0,
          "ix": 10
        },
        "p": {
          "a": 0,
          "k": [
            500,
            552.958,
            0
          ],
          "ix": 2
        },
        "a": {
          "a": 0,
          "k": [
            325,
            255,
            0
          ],
          "ix": 1
        },
        "s": {
          "a": 0,
          "k": [
            100,
            100,
            100
          ],
          "ix": 6
        }
      },
      "ao": 0,
      "hasMask": true,
      "masksProperties": [
        {
          "inv": false,
          "mode": "a",
          "pt": {
            "a": 1,
            "k": [
              {
                "i": {
                  "x": 0.833,
                  "y": 1
                },
                "o": {
                  "x": 0.333,
                  "y": 0
                },
                "t": 40.75,
                "s": [
                  {
                    "i": [
                      [
                        171.418,
                        5.406
                      ],
                      [
                        144.421,
                        -85.1
                      ],
                      [
                        -146.79,
                        50.1
                      ],
                      [
                        106.755,
                        0.517
                      ]
                    ],
                    "o": [
                      [
                        -88.79,
                        -2.8
                      ],
                      [
                        -91.976,
                        54.197
                      ],
                      [
                        132.357,
                        -45.174
                      ],
                      [
                        -214.056,
                        -1.036
                      ]
                    ],
                    "v": [
                      [
                        68.79,
                        -21.4
                      ],
                      [
                        -68.421,
                        84.9
                      ],
                      [
                        74.79,
                        299.2
                      ],
                      [
                        110,
                        208.9
                      ]
                    ],
                    "c": true
                  }
                ]
              },
              {
                "t": 75.75,
                "s": [
                  {
                    "i": [
                      [
                        155.308,
                        0
                      ],
                      [
                        0,
                        -106.757
                      ],
                      [
                        -155.308,
                        0
                      ],
                      [
                        0,
                        106.757
                      ]
                    ],
                    "o": [
                      [
                        -155.308,
                        0
                      ],
                      [
                        0,
                        106.757
                      ],
                      [
                        155.308,
                        0
                      ],
                      [
                        0,
                        -106.757
                      ]
                    ],
                    "v": [
                      [
                        323.79,
                        -15.199
                      ],
                      [
                        42.579,
                        178.101
                      ],
                      [
                        323.79,
                        371.401
                      ],
                      [
                        605,
                        178.101
                      ]
                    ],
                    "c": true
                  }
                ]
              }
            ],
            "ix": 1
          },
          "o": {
            "a": 0,
            "k": 100,
            "ix": 3
          },
          "x": {
            "a": 0,
            "k": 0,
            "ix": 4
          },
          "nm": "Mask 2"
        }
      ],
      "shapes": [
        {
          "ty": "gr",
          "it": [
            {
              "ind": 0,
              "ty": "sh",
              "ix": 1,
              "ks": {
                "a": 0,
                "k": {
                  "i": [
                    [
                      0.2,
                      -0.6
                    ],
                    [
                      -4.8,
                      -13.2
                    ],
                    [
                      -0.8,
                      -1.9
                    ],
                    [
                      -15.3,
                      -19.4
                    ],
                    [
                      -14.9,
                      -12.2
                    ],
                    [
                      -25.6,
                      -10.6
                    ],
                    [
                      -5.4,
                      -1.6
                    ],
                    [
                      0,
                      0
                    ],
                    [
                      -3.2,
                      -0.4
                    ],
                    [
                      0,
                      0
                    ],
                    [
                      -5.6,
                      2.8
                    ],
                    [
                      -12.8,
                      7.1
                    ],
                    [
                      -8.7,
                      5.2
                    ],
                    [
                      -16.3,
                      11.3
                    ],
                    [
                      -11.4,
                      8.9
                    ],
                    [
                      -11.3,
                      10.7
                    ],
                    [
                      -3.9,
                      4.3
                    ],
                    [
                      -7.9,
                      10.5
                    ],
                    [
                      -8,
                      13.4
                    ],
                    [
                      -4,
                      9.4
                    ],
                    [
                      -1,
                      3.2
                    ],
                    [
                      -0.6,
                      2.5
                    ],
                    [
                      -0.8,
                      7.2
                    ],
                    [
                      1.2,
                      9.8
                    ],
                    [
                      1.1,
                      1.1
                    ],
                    [
                      0,
                      0
                    ],
                    [
                      0,
                      0
                    ],
                    [
                      0.7,
                      -0.4
                    ],
                    [
                      0.1,
                      -0.4
                    ],
                    [
                      0,
                      0
                    ],
                    [
                      0.4,
                      -3.6
                    ],
                    [
                      1.7,
                      -6.7
                    ],
                    [
                      2.5,
                      -5.8
                    ],
                    [
                      4.3,
                      -6.5
                    ],
                    [
                      6,
                      -6
                    ],
                    [
                      1.3,
                      -0.8
                    ],
                    [
                      8.5,
                      -3.4
                    ],
                    [
                      8.9,
                      -1.4
                    ],
                    [
                      5.5,
                      0.6
                    ],
                    [
                      1.7,
                      0.6
                    ],
                    [
                      3.6,
                      2.1
                    ],
                    [
                      1.7,
                      1.8
                    ],
                    [
                      5.5,
                      9.9
                    ],
                    [
                      0.9,
                      2.7
                    ],
                    [
                      0.8,
                      7.8
                    ],
                    [
                      0,
                      2.6
                    ],
                    [
                      0.5,
                      0.5
                    ],
                    [
                      0.4,
                      0.3
                    ],
                    [
                      0.5,
                      0
                    ],
                    [
                      0,
                      0
                    ],
                    [
                      0,
                      0
                    ],
                    [
                      0.3,
                      -0.7
                    ]
                  ],
                  "o": [
                    [
                      0.4,
                      29.2
                    ],
                    [
                      1.8,
                      5.1
                    ],
                    [
                      4.2,
                      9.8
                    ],
                    [
                      3.9,
                      5
                    ],
                    [
                      6.7,
                      5.4
                    ],
                    [
                      8.5,
                      3.5
                    ],
                    [
                      0,
                      0
                    ],
                    [
                      0,
                      0
                    ],
                    [
                      3.2,
                      0.4
                    ],
                    [
                      3.6,
                      -1.7
                    ],
                    [
                      4.9,
                      -2.4
                    ],
                    [
                      5.5,
                      -3
                    ],
                    [
                      4.3,
                      -2.6
                    ],
                    [
                      6.9,
                      -4.8
                    ],
                    [
                      7.8,
                      -6.1
                    ],
                    [
                      7.8,
                      -7.4
                    ],
                    [
                      7,
                      -7.6
                    ],
                    [
                      1.6,
                      -2.1
                    ],
                    [
                      4.4,
                      -7.3
                    ],
                    [
                      3.3,
                      -7.6
                    ],
                    [
                      2.3,
                      -7.2
                    ],
                    [
                      1.3,
                      -5.6
                    ],
                    [
                      0.6,
                      -5.8
                    ],
                    [
                      0,
                      0
                    ],
                    [
                      -1.1,
                      -1.1
                    ],
                    [
                      0,
                      0
                    ],
                    [
                      -0.4,
                      0
                    ],
                    [
                      -1.1,
                      0.7
                    ],
                    [
                      0,
                      0
                    ],
                    [
                      0,
                      0.6
                    ],
                    [
                      -0.2,
                      1.4
                    ],
                    [
                      -0.8,
                      2.9
                    ],
                    [
                      -0.6,
                      1.5
                    ],
                    [
                      -2,
                      3.1
                    ],
                    [
                      -6.7,
                      6.7
                    ],
                    [
                      -1.4,
                      0.9
                    ],
                    [
                      -5.1,
                      2.1
                    ],
                    [
                      -9.3,
                      1.4
                    ],
                    [
                      -7,
                      -0.8
                    ],
                    [
                      -8.5,
                      -2.5
                    ],
                    [
                      -11.9,
                      -6.7
                    ],
                    [
                      -2.6,
                      -2.6
                    ],
                    [
                      -4.6,
                      -8.2
                    ],
                    [
                      -1,
                      -3.4
                    ],
                    [
                      -0.4,
                      -3.9
                    ],
                    [
                      -0.1,
                      -0.3
                    ],
                    [
                      -0.2,
                      -0.2
                    ],
                    [
                      -0.8,
                      -0.5
                    ],
                    [
                      0,
                      0
                    ],
                    [
                      0,
                      0
                    ],
                    [
                      -1.4,
                      0.2
                    ],
                    [
                      -0.1,
                      0.3
                    ]
                  ],
                  "v": [
                    [
                      -194,
                      -132.05
                    ],
                    [
                      -183,
                      -68.55
                    ],
                    [
                      -178.5,
                      -57.25
                    ],
                    [
                      -151,
                      -9.95
                    ],
                    [
                      -122.5,
                      18.85
                    ],
                    [
                      -73,
                      48.15
                    ],
                    [
                      -51.7,
                      55.55
                    ],
                    [
                      -51.7,
                      130.65
                    ],
                    [
                      -48.5,
                      135.35
                    ],
                    [
                      -40.7,
                      133.15
                    ],
                    [
                      -26.8,
                      126.35
                    ],
                    [
                      1.1,
                      111.65
                    ],
                    [
                      22.1,
                      99.65
                    ],
                    [
                      55.5,
                      78.05
                    ],
                    [
                      82.7,
                      58.25
                    ],
                    [
                      111,
                      34.15
                    ],
                    [
                      128.4,
                      16.35
                    ],
                    [
                      149.9,
                      -8.85
                    ],
                    [
                      166.6,
                      -33.85
                    ],
                    [
                      178.8,
                      -57.05
                    ],
                    [
                      185.2,
                      -74.25
                    ],
                    [
                      189.5,
                      -89.55
                    ],
                    [
                      193,
                      -108.15
                    ],
                    [
                      192.8,
                      -131.85
                    ],
                    [
                      191.5,
                      -134.55
                    ],
                    [
                      189.4,
                      -135.75
                    ],
                    [
                      92.5,
                      -135.75
                    ],
                    [
                      90.8,
                      -135.15
                    ],
                    [
                      89.1,
                      -133.15
                    ],
                    [
                      89.1,
                      -129.95
                    ],
                    [
                      88.6,
                      -122.55
                    ],
                    [
                      86.1,
                      -109.35
                    ],
                    [
                      81.6,
                      -96.05
                    ],
                    [
                      74.3,
                      -82.75
                    ],
                    [
                      62.4,
                      -68.15
                    ],
                    [
                      48.5,
                      -56.65
                    ],
                    [
                      32.8,
                      -48.55
                    ],
                    [
                      11.6,
                      -42.65
                    ],
                    [
                      -10.9,
                      -42.15
                    ],
                    [
                      -24.9,
                      -44.95
                    ],
                    [
                      -43,
                      -52.85
                    ],
                    [
                      -64.1,
                      -68.85
                    ],
                    [
                      -78.3,
                      -87.95
                    ],
                    [
                      -86,
                      -105.85
                    ],
                    [
                      -89.4,
                      -123.15
                    ],
                    [
                      -89.8,
                      -133.15
                    ],
                    [
                      -90.7,
                      -134.55
                    ],
                    [
                      -91.6,
                      -135.25
                    ],
                    [
                      -93.7,
                      -135.75
                    ],
                    [
                      -190.4,
                      -135.75
                    ],
                    [
                      -190.9,
                      -135.75
                    ],
                    [
                      -193.5,
                      -133.45
                    ]
                  ],
                  "c": true
                },
                "ix": 2
              },
              "nm": "Path 1",
              "mn": "ADBE Vector Shape - Group",
              "hd": false
            },
            {
              "ty": "fl",
              "c": {
                "a": 0,
                "k": [
                  1,
                  0,
                  0.4,
                  1
                ],
                "ix": 4
              },
              "o": {
                "a": 0,
                "k": 100,
                "ix": 5
              },
              "r": 1,
              "bm": 0,
              "nm": "Fill 1",
              "mn": "ADBE Vector Graphic - Fill",
              "hd": false
            },
            {
              "ty": "tr",
              "p": {
                "a": 0,
                "k": [
                  325.211,
                  212.15
                ],
                "ix": 2
              },
              "a": {
                "a": 0,
                "k": [
                  0,
                  0
                ],
                "ix": 1
              },
              "s": {
                "a": 0,
                "k": [
                  100,
                  100
                ],
                "ix": 3
              },
              "r": {
                "a": 0,
                "k": 0,
                "ix": 6
              },
              "o": {
                "a": 0,
                "k": 100,
                "ix": 7
              },
              "sk": {
                "a": 0,
                "k": 0,
                "ix": 4
              },
              "sa": {
                "a": 0,
                "k": 0,
                "ix": 5
              },
              "nm": "Transform"
            }
          ],
          "nm": "Group 1",
          "np": 2,
          "cix": 2,
          "bm": 0,
          "ix": 1,
          "mn": "ADBE Vector Group",
          "hd": false
        }
      ],
      "ip": 0,
      "op": 150,
      "st": 0,
      "bm": 0
    },
    {
      "ddd": 0,
      "ind": 3,
      "ty": 4,
      "nm": "Logo-outline",
      "sr": 1,
      "ks": {
        "o": {
          "a": 0,
          "k": 100,
          "ix": 11
        },
        "r": {
          "a": 0,
          "k": 0,
          "ix": 10
        },
        "p": {
          "a": 0,
          "k": [
            489.111,
            506.987,
            0
          ],
          "ix": 2
        },
        "a": {
          "a": 0,
          "k": [
            325,
            255,
            0
          ],
          "ix": 1
        },
        "s": {
          "a": 0,
          "k": [
            100,
            100,
            100
          ],
          "ix": 6
        }
      },
      "ao": 0,
      "shapes": [
        {
          "ty": "gr",
          "it": [
            {
              "ind": 0,
              "ty": "sh",
              "ix": 1,
              "ks": {
                "a": 0,
                "k": {
                  "i": [
                    [
                      0.2,
                      -0.6
                    ],
                    [
                      -4.8,
                      -13.2
                    ],
                    [
                      -0.8,
                      -1.9
                    ],
                    [
                      -15.3,
                      -19.4
                    ],
                    [
                      -14.9,
                      -12.2
                    ],
                    [
                      -25.6,
                      -10.6
                    ],
                    [
                      -5.4,
                      -1.6
                    ],
                    [
                      0,
                      0
                    ],
                    [
                      -3.2,
                      -0.4
                    ],
                    [
                      0,
                      0
                    ],
                    [
                      -5.6,
                      2.8
                    ],
                    [
                      -12.8,
                      7.1
                    ],
                    [
                      -8.7,
                      5.2
                    ],
                    [
                      -16.3,
                      11.3
                    ],
                    [
                      -11.4,
                      8.9
                    ],
                    [
                      -11.3,
                      10.7
                    ],
                    [
                      -3.9,
                      4.3
                    ],
                    [
                      -7.9,
                      10.5
                    ],
                    [
                      -8,
                      13.4
                    ],
                    [
                      -4,
                      9.4
                    ],
                    [
                      -1,
                      3.2
                    ],
                    [
                      -0.6,
                      2.5
                    ],
                    [
                      -0.8,
                      7.2
                    ],
                    [
                      1.2,
                      9.8
                    ],
                    [
                      1.1,
                      1.1
                    ],
                    [
                      0,
                      0
                    ],
                    [
                      0,
                      0
                    ],
                    [
                      0.7,
                      -0.4
                    ],
                    [
                      0.1,
                      -0.4
                    ],
                    [
                      0,
                      0
                    ],
                    [
                      0.4,
                      -3.6
                    ],
                    [
                      1.7,
                      -6.7
                    ],
                    [
                      2.5,
                      -5.8
                    ],
                    [
                      4.3,
                      -6.5
                    ],
                    [
                      6,
                      -6
                    ],
                    [
                      1.3,
                      -0.8
                    ],
                    [
                      8.5,
                      -3.4
                    ],
                    [
                      8.9,
                      -1.4
                    ],
                    [
                      5.5,
                      0.6
                    ],
                    [
                      1.7,
                      0.6
                    ],
                    [
                      3.6,
                      2.1
                    ],
                    [
                      1.7,
                      1.8
                    ],
                    [
                      5.5,
                      9.9
                    ],
                    [
                      0.9,
                      2.7
                    ],
                    [
                      0.8,
                      7.8
                    ],
                    [
                      0,
                      2.6
                    ],
                    [
                      0.5,
                      0.5
                    ],
                    [
                      0.4,
                      0.3
                    ],
                    [
                      0.5,
                      0
                    ],
                    [
                      0,
                      0
                    ],
                    [
                      0,
                      0
                    ],
                    [
                      0.3,
                      -0.7
                    ]
                  ],
                  "o": [
                    [
                      0.4,
                      29.2
                    ],
                    [
                      1.8,
                      5.1
                    ],
                    [
                      4.2,
                      9.8
                    ],
                    [
                      3.9,
                      5
                    ],
                    [
                      6.7,
                      5.4
                    ],
                    [
                      8.5,
                      3.5
                    ],
                    [
                      0,
                      0
                    ],
                    [
                      0,
                      0
                    ],
                    [
                      3.2,
                      0.4
                    ],
                    [
                      3.6,
                      -1.7
                    ],
                    [
                      4.9,
                      -2.4
                    ],
                    [
                      5.5,
                      -3
                    ],
                    [
                      4.3,
                      -2.6
                    ],
                    [
                      6.9,
                      -4.8
                    ],
                    [
                      7.8,
                      -6.1
                    ],
                    [
                      7.8,
                      -7.4
                    ],
                    [
                      7,
                      -7.6
                    ],
                    [
                      1.6,
                      -2.1
                    ],
                    [
                      4.4,
                      -7.3
                    ],
                    [
                      3.3,
                      -7.6
                    ],
                    [
                      2.3,
                      -7.2
                    ],
                    [
                      1.3,
                      -5.6
                    ],
                    [
                      0.6,
                      -5.8
                    ],
                    [
                      0,
                      0
                    ],
                    [
                      -1.1,
                      -1.1
                    ],
                    [
                      0,
                      0
                    ],
                    [
                      -0.4,
                      0
                    ],
                    [
                      -1.1,
                      0.7
                    ],
                    [
                      0,
                      0
                    ],
                    [
                      0,
                      0.6
                    ],
                    [
                      -0.2,
                      1.4
                    ],
                    [
                      -0.8,
                      2.9
                    ],
                    [
                      -0.6,
                      1.5
                    ],
                    [
                      -2,
                      3.1
                    ],
                    [
                      -6.7,
                      6.7
                    ],
                    [
                      -1.4,
                      0.9
                    ],
                    [
                      -5.1,
                      2.1
                    ],
                    [
                      -9.3,
                      1.4
                    ],
                    [
                      -7,
                      -0.8
                    ],
                    [
                      -8.5,
                      -2.5
                    ],
                    [
                      -11.9,
                      -6.7
                    ],
                    [
                      -2.6,
                      -2.6
                    ],
                    [
                      -4.6,
                      -8.2
                    ],
                    [
                      -1,
                      -3.4
                    ],
                    [
                      -0.4,
                      -3.9
                    ],
                    [
                      -0.1,
                      -0.3
                    ],
                    [
                      -0.2,
                      -0.2
                    ],
                    [
                      -0.8,
                      -0.5
                    ],
                    [
                      0,
                      0
                    ],
                    [
                      0,
                      0
                    ],
                    [
                      -1.4,
                      0.2
                    ],
                    [
                      -0.1,
                      0.3
                    ]
                  ],
                  "v": [
                    [
                      -194,
                      -132.05
                    ],
                    [
                      -183,
                      -68.55
                    ],
                    [
                      -178.5,
                      -57.25
                    ],
                    [
                      -151,
                      -9.95
                    ],
                    [
                      -122.5,
                      18.85
                    ],
                    [
                      -73,
                      48.15
                    ],
                    [
                      -51.7,
                      55.55
                    ],
                    [
                      -51.7,
                      130.65
                    ],
                    [
                      -48.5,
                      135.35
                    ],
                    [
                      -40.7,
                      133.15
                    ],
                    [
                      -26.8,
                      126.35
                    ],
                    [
                      1.1,
                      111.65
                    ],
                    [
                      22.1,
                      99.65
                    ],
                    [
                      55.5,
                      78.05
                    ],
                    [
                      82.7,
                      58.25
                    ],
                    [
                      111,
                      34.15
                    ],
                    [
                      128.4,
                      16.35
                    ],
                    [
                      149.9,
                      -8.85
                    ],
                    [
                      166.6,
                      -33.85
                    ],
                    [
                      178.8,
                      -57.05
                    ],
                    [
                      185.2,
                      -74.25
                    ],
                    [
                      189.5,
                      -89.55
                    ],
                    [
                      193,
                      -108.15
                    ],
                    [
                      192.8,
                      -131.85
                    ],
                    [
                      191.5,
                      -134.55
                    ],
                    [
                      189.4,
                      -135.75
                    ],
                    [
                      92.5,
                      -135.75
                    ],
                    [
                      90.8,
                      -135.15
                    ],
                    [
                      89.1,
                      -133.15
                    ],
                    [
                      89.1,
                      -129.95
                    ],
                    [
                      88.6,
                      -122.55
                    ],
                    [
                      86.1,
                      -109.35
                    ],
                    [
                      81.6,
                      -96.05
                    ],
                    [
                      74.3,
                      -82.75
                    ],
                    [
                      62.4,
                      -68.15
                    ],
                    [
                      48.5,
                      -56.65
                    ],
                    [
                      32.8,
                      -48.55
                    ],
                    [
                      11.6,
                      -42.65
                    ],
                    [
                      -10.9,
                      -42.15
                    ],
                    [
                      -24.9,
                      -44.95
                    ],
                    [
                      -43,
                      -52.85
                    ],
                    [
                      -64.1,
                      -68.85
                    ],
                    [
                      -78.3,
                      -87.95
                    ],
                    [
                      -86,
                      -105.85
                    ],
                    [
                      -89.4,
                      -123.15
                    ],
                    [
                      -89.8,
                      -133.15
                    ],
                    [
                      -90.7,
                      -134.55
                    ],
                    [
                      -91.6,
                      -135.25
                    ],
                    [
                      -93.7,
                      -135.75
                    ],
                    [
                      -190.4,
                      -135.75
                    ],
                    [
                      -190.9,
                      -135.75
                    ],
                    [
                      -193.5,
                      -133.45
                    ]
                  ],
                  "c": true
                },
                "ix": 2
              },
              "nm": "Path 1",
              "mn": "ADBE Vector Shape - Group",
              "hd": false
            },
            {
              "ty": "st",
              "c": {
                "a": 0,
                "k": [
                  1,
                  0,
                  0.4,
                  1
                ],
                "ix": 3
              },
              "o": {
                "a": 0,
                "k": 100,
                "ix": 4
              },
              "w": {
                "a": 0,
                "k": 20,
                "ix": 5
              },
              "lc": 1,
              "lj": 1,
              "ml": 10,
              "bm": 0,
              "nm": "Stroke 1",
              "mn": "ADBE Vector Graphic - Stroke",
              "hd": false
            },
            {
              "ty": "tr",
              "p": {
                "a": 0,
                "k": [
                  336.1,
                  255.15
                ],
                "ix": 2
              },
              "a": {
                "a": 0,
                "k": [
                  0,
                  0
                ],
                "ix": 1
              },
              "s": {
                "a": 0,
                "k": [
                  100,
                  100
                ],
                "ix": 3
              },
              "r": {
                "a": 0,
                "k": 0,
                "ix": 6
              },
              "o": {
                "a": 0,
                "k": 100,
                "ix": 7
              },
              "sk": {
                "a": 0,
                "k": 0,
                "ix": 4
              },
              "sa": {
                "a": 0,
                "k": 0,
                "ix": 5
              },
              "nm": "Transform"
            }
          ],
          "nm": "Group 1",
          "np": 2,
          "cix": 2,
          "bm": 0,
          "ix": 1,
          "mn": "ADBE Vector Group",
          "hd": false
        },
        {
          "ty": "tm",
          "s": {
            "a": 1,
            "k": [
              {
                "i": {
                  "x": [
                    0.667
                  ],
                  "y": [
                    1
                  ]
                },
                "o": {
                  "x": [
                    0.333
                  ],
                  "y": [
                    0
                  ]
                },
                "t": 7,
                "s": [
                  0
                ]
              },
              {
                "t": 40.75,
                "s": [
                  100
                ]
              }
            ],
            "ix": 1
          },
          "e": {
            "a": 0,
            "k": 0,
            "ix": 2
          },
          "o": {
            "a": 0,
            "k": 0,
            "ix": 3
          },
          "m": 1,
          "ix": 2,
          "nm": "Trim Paths 1",
          "mn": "ADBE Vector Filter - Trim",
          "hd": false
        }
      ],
      "ip": 0,
      "op": 150,
      "st": 0,
      "bm": 0
    }
  ],
  "markers": []
}